{
    "key": "group_567b3917e3292",
    "title": "Footer Settings",
    "fields": [
        {
            "key": "field_567b391f399c1",
            "label": "Custom Message",
            "name": "custom_message_",
            "type": "text",
            "instructions": "A Custom Message to Show in the Footer Area",
            "required": 0,
            "conditional_logic": 0,
            "wrapper": {
                "width": "",
                "class": "",
                "id": ""
            },
            "default_value": "",
            "placeholder": "",
            "prepend": "",
            "append": "",
            "maxlength": "",
            "readonly": 0,
            "disabled": 0
        },
        {
            "key": "field_567b3959399c2",
            "label": "Custom Javascripts",
            "name": "custom_javascripts",
            "type": "textarea",
            "instructions": "Don't Forget the Google Analytics Code",
            "required": 0,
            "conditional_logic": 0,
            "wrapper": {
                "width": "",
                "class": "",
                "id": ""
            },
            "default_value": "",
            "placeholder": "",
            "maxlength": "",
            "rows": "",
            "new_lines": "",
            "readonly": 0,
            "disabled": 0
        }
    ],
    "location": [
        [
            {
                "param": "options_page",
                "operator": "==",
                "value": "acf-options-footer"
            }
        ]
    ],
    "menu_order": 0,
    "position": "normal",
    "style": "default",
    "label_placement": "top",
    "instruction_placement": "label",
    "hide_on_screen": "",
    "active": 1,
    "description": "",
    "modified": 1450916235
}