{
    "key": "group_567b385ddde60",
    "title": "Header Options",
    "fields": [
        {
            "key": "field_567b3870fc75d",
            "label": "Logo",
            "name": "logo",
            "type": "image",
            "instructions": "Don't Forget the site Logo",
            "required": 0,
            "conditional_logic": 0,
            "wrapper": {
                "width": 50,
                "class": "",
                "id": ""
            },
            "return_format": "url",
            "preview_size": "medium",
            "library": "all",
            "min_width": "",
            "min_height": "",
            "min_size": "",
            "max_width": "",
            "max_height": "",
            "max_size": "",
            "mime_types": ""
        },
        {
            "key": "field_567b389dfc75e",
            "label": "Favicon",
            "name": "favicon",
            "type": "image",
            "instructions": "The Image that Shows in the Browser Title Bar.",
            "required": 0,
            "conditional_logic": 0,
            "wrapper": {
                "width": 50,
                "class": "",
                "id": ""
            },
            "return_format": "url",
            "preview_size": "thumbnail",
            "library": "all",
            "min_width": "",
            "min_height": "",
            "min_size": "",
            "max_width": 16,
            "max_height": 16,
            "max_size": "",
            "mime_types": ""
        },
        {
            "key": "field_567b38c8fc75f",
            "label": "Custom CSS",
            "name": "custom_css",
            "type": "textarea",
            "instructions": "Last Minutes Style Changes Goes Here...",
            "required": 0,
            "conditional_logic": 0,
            "wrapper": {
                "width": "",
                "class": "",
                "id": ""
            },
            "default_value": "",
            "placeholder": "",
            "maxlength": "",
            "rows": "",
            "new_lines": "",
            "readonly": 0,
            "disabled": 0
        }
    ],
    "location": [
        [
            {
                "param": "options_page",
                "operator": "==",
                "value": "acf-options-header"
            }
        ]
    ],
    "menu_order": 0,
    "position": "normal",
    "style": "default",
    "label_placement": "top",
    "instruction_placement": "label",
    "hide_on_screen": "",
    "active": 1,
    "description": "",
    "modified": 1450916099
}